<?xml version="1.0" encoding="UTF-8"?>
<svg width="41.8625702px" height="20.0227087px" viewBox="0 0 41.8625702 20.0227087" version="1.1" xmlns="http://www.w3.org/2000/svg" xmlns:xlink="http://www.w3.org/1999/xlink">
    <!-- Generator: Sketch 61 (89581) - https://sketch.com -->
    <desc>Created with Sketch.</desc>
    <g id="Landing-Page" stroke="none" stroke-width="1" fill="none" fill-rule="evenodd">
        <path d="M31.6678677,5.32907052e-15 C34.3663998,5.32907052e-15 36.9559363,1.05057146 38.8677362,2.92314131 C40.784643,4.80071324 41.8629189,7.3508515 41.8625701,10.0111892 C41.8629189,12.6718572 40.784643,15.2219955 38.8677362,17.0995674 C36.9559363,18.9721373 34.3663998,20.0227087 31.6678677,20.0227087 L15.9789402,20.0227087 C15.2832833,20.0227087 14.7193419,19.4587674 14.7193419,18.7631105 C14.7193419,18.0674536 15.2832833,17.5035123 15.9789402,17.5035123 L31.6678677,17.5035123 C33.7092072,17.5035123 35.6653758,16.7098973 37.104956,15.2998572 C38.5394294,13.8948192 39.3436334,11.9928649 39.3433736,10.0111892 C39.3436334,8.0298438 38.5394294,6.12788947 37.104956,4.72285148 C35.6653758,3.31281141 33.7092072,2.51919641 31.6678677,2.51919643 L10.0076699,2.51919643 C9.31201297,2.51919643 8.74807164,1.9552551 8.74807164,1.25959821 C8.74807164,0.56394133 9.31201297,5.32907052e-15 10.0076699,5.32907052e-15 L31.6678677,5.32907052e-15 Z M11.0874095,17.5023885 C11.7830664,17.5023885 12.3470078,18.0663299 12.3470078,18.7619867 C12.3470078,19.4576436 11.7830664,20.021585 11.0874095,20.021585 L1.25959821,20.021585 C0.56394133,20.021585 -3.55271368e-14,19.4576436 -3.55271368e-14,18.7619867 C-3.55271368e-14,18.0663299 0.56394133,17.5023885 1.25959821,17.5023885 L11.0874095,17.5023885 Z" id="Combined-Shape" fill="#A452FF" fill-rule="nonzero"></path>
    </g>
</svg>