<?xml version="1.0" encoding="UTF-8"?>
<svg width="18px" height="5px" viewBox="0 0 18 5" version="1.1" xmlns="http://www.w3.org/2000/svg" xmlns:xlink="http://www.w3.org/1999/xlink">
    <!-- Generator: Sketch 61 (89581) - https://sketch.com -->
    <desc>Created with Sketch.</desc>
    <defs>
        <path d="M15.2,0.266666658 C16.3782075,0.266666658 17.3333334,1.22179253 17.3333334,2.4 C17.3333334,3.57820747 16.3782075,4.53333334 15.2,4.53333334 C14.410948,4.53333334 13.7219494,4.10495422 13.3528856,3.46807756 L4.24711442,3.46807756 C3.87805064,4.10495422 3.18905196,4.53333334 2.39999997,4.53333334 C1.2217925,4.53333334 0.266666631,3.57820747 0.266666631,2.4 C0.266666631,1.22179253 1.2217925,0.266666658 2.39999997,0.266666658 C3.18929653,0.266666658 3.87847774,0.695311376 4.2474575,1.33251469 L13.3525425,1.33251469 C13.7215223,0.695311376 14.4107035,0.266666658 15.2,0.266666658 Z" id="path-1"></path>
    </defs>
    <g id="Landing-Page" stroke="none" stroke-width="1" fill="none" fill-rule="evenodd">
        <g id="icon-skala32x32">
            <mask id="mask-2" fill="white">
                <use xlink:href="#path-1"></use>
            </mask>
            <use id="Combined-Shape" fill="#FFFFFF" fill-rule="nonzero" xlink:href="#path-1"></use>
        </g>
    </g>
</svg>