<?xml version="1.0" encoding="UTF-8"?>
<svg width="28px" height="24px" viewBox="0 0 28 24" version="1.1" xmlns="http://www.w3.org/2000/svg" xmlns:xlink="http://www.w3.org/1999/xlink">
    <!-- Generator: sketchtool 52.2 (67145) - http://www.bohemiancoding.com/sketch -->
    <title>8812F900-F430-4674-8959-4CB8DDF1DAE7</title>
    <desc>Created with sketchtool.</desc>
    <defs>
        <path d="M3.59057527,9.18666665 C4.24564677,4.02091499 8.65637004,0.0266666168 14,0.0266666168 C19.34363,0.0266666168 23.7543532,4.02091499 24.4094247,9.18666665 L26.6266667,9.18666665 C27.3630464,9.18666665 27.9600001,9.78362032 27.9600001,10.52 C27.9600001,11.2563797 27.3630464,11.8533333 26.6266667,11.8533333 L1.37333328,11.8533333 C0.636953611,11.8533333 0.0399999418,11.2563797 0.0399999418,10.52 C0.0399999418,9.78362032 0.636953611,9.18666665 1.37333328,9.18666665 L3.59057527,9.18666665 Z M6.28645041,9.18666665 L21.7135496,9.18666665 C21.0806699,5.49925091 17.8680135,2.69333329 14,2.69333329 C10.1319865,2.69333329 6.9193301,5.49925091 6.28645041,9.18666665 Z M20.0533334,24 C17.5163099,23.9926356 15.4642334,21.9326015 15.4666882,19.3955685 C15.469143,16.8585355 17.5252022,14.8024764 20.0622352,14.8000215 C22.5992682,14.7975667 24.6593023,16.8496432 24.6666667,19.3866667 C24.6738139,20.6123759 24.1900631,21.7899525 23.3233411,22.6566745 C22.4566191,23.5233964 21.2790425,24.0071472 20.0533334,24 Z M20.0533334,17.48 C19.2701996,17.4854753 18.567728,17.9628587 18.2743241,18.6889735 C17.9809202,19.4150883 18.1545497,20.2464812 18.7140408,20.7944759 C19.2735319,21.3424706 20.10835,21.4988038 20.8282175,21.1903897 C21.5480851,20.8819756 22.010783,20.1697454 22,19.3866667 C22.0036347,18.8704891 21.7992731,18.3745903 21.4330192,18.0108451 C21.0667654,17.6470998 20.5694738,17.4461512 20.0533334,17.4533334 L20.0533334,17.48 Z M7.94666664,24 C6.08372464,24.0053921 4.40146878,22.8866192 3.6860587,21.1665116 C2.97064861,19.4464039 3.36335693,17.4646325 4.68066137,16.1473281 C5.99796581,14.8300237 7.97973716,14.4373153 9.69984483,15.1527254 C11.4199525,15.8681355 12.5387254,17.5503914 12.5333333,19.4133334 C12.5260103,21.9434399 10.4767732,23.992677 7.94666664,24 Z M7.94666664,17.48 C7.16110366,17.4746567 6.45041156,17.9451895 6.14857919,18.6704722 C5.84674682,19.3957549 6.0137932,20.2315659 6.57121508,20.7851168 C7.12863697,21.3386677 7.96559168,21.4998856 8.68875342,21.1930064 C9.41191516,20.8861272 9.87748408,20.1721734 9.86666665,19.3866667 C9.86669192,18.3241016 9.0092065,17.4606614 7.94666664,17.4533334 L7.94666664,17.48 Z" id="path-1"></path>
    </defs>
    <g id="Symbols" stroke="none" stroke-width="1" fill="none" fill-rule="evenodd">
        <g id="pattern_library/invision" transform="translate(-753.000000, -2507.000000)">
            <g id="Icons" transform="translate(98.000000, 2321.000000)">
                <g id="icon-incognito32x32" transform="translate(655.000000, 186.000000)">
                    <mask id="mask-2" fill="white">
                        <use xlink:href="#path-1"></use>
                    </mask>
                    <g id="Combined-Shape"></g>
                    <g id="🎨-color" mask="url(#mask-2)" fill="#D2D2D2">
                        <g transform="translate(-2.000000, -4.000000)" id="Rectangle-Copy">
                            <rect x="0" y="0" width="32" height="32"></rect>
                        </g>
                    </g>
                </g>
            </g>
        </g>
    </g>
</svg>