<?xml version="1.0" encoding="UTF-8"?>
<svg width="24px" height="24px" viewBox="0 0 24 24" version="1.1" xmlns="http://www.w3.org/2000/svg" xmlns:xlink="http://www.w3.org/1999/xlink">
    <!-- Generator: sketchtool 52.2 (67145) - http://www.bohemiancoding.com/sketch -->
    <title>03B85077-03E7-4181-8D01-540BB2BC13BF</title>
    <desc>Created with sketchtool.</desc>
    <defs>
        <path d="M21,4.94666664 L15.28,10.6666667 C15.0199027,10.8968337 14.6802593,11.0164264 14.3333333,11 C13.9683648,11.0309602 13.606732,10.9104159 13.3333333,10.6666667 C13.0809165,10.4163112 12.9389356,10.0755167 12.9389356,9.71999999 C12.9389356,9.36448327 13.0809165,9.02368879 13.3333333,8.77333332 L19.1066667,2.99999996 L14.3333333,2.99999996 C13.5969537,2.99999996 13,2.40304629 13,1.66666662 C13,0.930286954 13.5969537,0.333333285 14.3333333,0.333333285 L22.3333334,0.333333285 C23.069713,0.333333285 23.6666667,0.930286954 23.6666667,1.66666662 L23.6666667,9.66666666 C23.6666667,10.4030463 23.069713,11 22.3333334,11 C21.5969537,11 21,10.4030463 21,9.66666666 L21,4.94666664 Z M1.78620695,23.6666667 C1.74654849,23.668446 1.70666543,23.66846 1.66666662,23.6666667 C1.31226264,23.6687157 0.971625062,23.5295821 0.719999953,23.28 C0.467583084,23.0296446 0.325602186,22.6888501 0.325602186,22.3333334 C0.325602186,22.2851948 0.328205323,22.2373261 0.333333285,22.1899153 L0.333333285,14.3333333 C0.333333285,13.5969537 0.930286954,13 1.66666662,13 C2.40304629,13 2.99999996,13.5969537 2.99999996,14.3333333 L2.99999996,19.1066667 L8.71999999,13.3866667 C9.24282955,12.8491095 10.1024428,12.8371704 10.64,13.36 C11.1775572,13.8828296 11.1894962,14.7424429 10.6666667,15.28 L4.94666664,21 L9.66666666,21 C10.4030463,21 11,21.5969537 11,22.3333334 C11,23.069713 10.4030463,23.6666667 9.66666666,23.6666667 L1.78620695,23.6666667 Z" id="path-1"></path>
    </defs>
    <g id="Symbols" stroke="none" stroke-width="1" fill="none" fill-rule="evenodd">
        <g id="pattern_library/invision" transform="translate(-569.000000, -2507.000000)">
            <g id="Icons" transform="translate(98.000000, 2321.000000)">
                <g id="icon-enlarge32x32" transform="translate(471.000000, 186.000000)">
                    <mask id="mask-2" fill="white">
                        <use xlink:href="#path-1"></use>
                    </mask>
                    <g id="Combined-Shape"></g>
                    <g id="🎨-color" mask="url(#mask-2)" fill="#D2D2D2">
                        <g transform="translate(-4.000000, -4.000000)" id="Rectangle-Copy">
                            <rect x="0" y="0" width="32" height="32"></rect>
                        </g>
                    </g>
                </g>
            </g>
        </g>
    </g>
</svg>