<?xml version="1.0" encoding="UTF-8"?>
<svg width="30px" height="28px" viewBox="0 0 30 28" version="1.1" xmlns="http://www.w3.org/2000/svg" xmlns:xlink="http://www.w3.org/1999/xlink">
    <!-- Generator: sketchtool 52.2 (67145) - http://www.bohemiancoding.com/sketch -->
    <title>B58D574D-5413-4AA4-A2FE-9FC17D09A0DE</title>
    <desc>Created with sketchtool.</desc>
    <defs>
        <path d="M6.87881751,13.8726912 L7.62666663,13.3333333 C7.91120598,13.1225703 8.26789594,13.0336468 8.61807395,13.0861735 C8.96825195,13.1387002 9.28315404,13.3283625 9.49333331,13.6133333 C9.70409632,13.8978727 9.79301985,14.2545626 9.74049315,14.6047406 C9.68796645,14.9549186 9.49830412,15.2698207 9.21333331,15.48 L5.94666662,17.8533333 C5.71587173,18.0264295 5.43516024,18.12 5.14666662,18.12 C4.72463023,18.116867 4.32899665,17.9141048 4.07999995,17.5733333 L1.65333327,14.3066667 C1.44257025,14.0221273 1.35364673,13.6654373 1.40617343,13.3152593 C1.45870013,12.9650813 1.64836246,12.6501793 1.93333327,12.44 C2.21787262,12.229237 2.57456259,12.1403134 2.92474059,12.1928401 C3.27491859,12.2453668 3.58982068,12.4350292 3.79999995,12.72 L4.26387352,13.34737 C5.49383138,7.25440373 10.8778207,2.66666661 17.3333333,2.66666661 C24.69713,2.66666661 30.6666667,8.6362033 30.6666667,16 C30.6666667,23.3637967 24.69713,29.3333334 17.3333333,29.3333334 C16.5969537,29.3333334 16,28.7363797 16,28.0000001 C16,27.2636204 16.5969537,26.6666667 17.3333333,26.6666667 C23.2243707,26.6666667 28.0000001,21.8910374 28.0000001,16 C28.0000001,10.1089626 23.2243707,5.33333329 17.3333333,5.33333329 C12.1707615,5.33333329 7.86479827,9.00091056 6.87881751,13.8726912 Z M20,20 L16,20 C15.2636203,20 14.6666667,19.4030463 14.6666667,18.6666667 L14.6666667,12 C14.6666667,11.2636203 15.2636203,10.6666666 16,10.6666666 C16.7363797,10.6666666 17.3333333,11.2636203 17.3333333,12 L17.3333333,17.3333333 L20,17.3333333 C20.7363797,17.3333333 21.3333334,17.930287 21.3333334,18.6666667 C21.3333334,19.4030463 20.7363797,20 20,20 Z" id="path-1"></path>
    </defs>
    <g id="Symbols" stroke="none" stroke-width="1" fill="none" fill-rule="evenodd">
        <g id="pattern_library/invision" transform="translate(-640.000000, -2560.000000)">
            <g id="Icons" transform="translate(98.000000, 2321.000000)">
                <g id="icon-history32x32" transform="translate(541.000000, 237.000000)">
                    <mask id="mask-2" fill="white">
                        <use xlink:href="#path-1"></use>
                    </mask>
                    <g id="Combined-Shape"></g>
                    <g id="🎨-color" mask="url(#mask-2)" fill="#D2D2D2">
                        <rect id="Rectangle-Copy" x="0" y="0" width="32" height="32"></rect>
                    </g>
                </g>
            </g>
        </g>
    </g>
</svg>