<?xml version="1.0" encoding="UTF-8"?>
<svg width="26px" height="22px" viewBox="0 0 26 22" version="1.1" xmlns="http://www.w3.org/2000/svg" xmlns:xlink="http://www.w3.org/1999/xlink">
    <!-- Generator: sketchtool 52.2 (67145) - http://www.bohemiancoding.com/sketch -->
    <title>B82900F7-381F-4F75-8592-63965FF1BC9E</title>
    <desc>Created with sketchtool.</desc>
    <defs>
        <path d="M13,21.96 C12.645596,21.9620491 12.3049584,21.8229154 12.0533333,21.5733334 L2.33333329,11.8666667 C-0.372861899,9.15310757 -0.366892316,4.75952864 2.34666673,2.0533334 C5.06022577,-0.652861846 9.45380469,-0.646892355 12.16,2.06666663 L13,2.8933333 L13.84,2.06666663 C15.1411144,0.759840073 16.9092362,0.0251904673 18.7533334,0.0251904673 C20.5974305,0.0251904673 22.3655523,0.759840073 23.6666667,2.06666663 C26.3708276,4.77370426 26.3708276,9.15962904 23.6666667,11.8666667 L13.9733333,21.5733334 C13.7152092,21.8295855 13.3636033,21.9692645 13,21.96 Z M7.26666664,2.70666663 C5.54080441,2.70422717 3.98344474,3.7417552 3.32089459,5.33537803 C2.65834445,6.92900085 3.02110682,8.76482138 4.23999996,9.98666666 L13,18.7466667 L21.76,9.98666666 C23.4279,8.30403912 23.4159609,5.58789992 21.7333334,3.91999997 C20.0507058,2.25210002 17.3345666,2.26403909 15.6666667,3.94666664 L13.9466667,5.66666664 C13.6963112,5.91908351 13.3555167,6.06106441 13,6.06106441 C12.6444833,6.06106441 12.3036888,5.91908351 12.0533333,5.66666664 L10.3333333,3.94666664 C9.52201828,3.13388068 8.41489789,2.68621896 7.26666664,2.70666663 Z" id="path-1"></path>
    </defs>
    <g id="Symbols" stroke="none" stroke-width="1" fill="none" fill-rule="evenodd">
        <g id="pattern_library/invision" transform="translate(-708.000000, -2508.000000)">
            <g id="Icons" transform="translate(98.000000, 2321.000000)">
                <g id="icon-heart32x32" transform="translate(610.000000, 187.000000)">
                    <mask id="mask-2" fill="white">
                        <use xlink:href="#path-1"></use>
                    </mask>
                    <g id="icon-heart" fill-rule="nonzero"></g>
                    <g id="🎨-color" mask="url(#mask-2)" fill="#D2D2D2">
                        <g transform="translate(-3.000000, -5.000000)" id="Rectangle-Copy">
                            <rect x="0" y="0" width="32" height="32"></rect>
                        </g>
                    </g>
                </g>
            </g>
        </g>
    </g>
</svg>