<?xml version="1.0" encoding="UTF-8"?>
<svg width="28px" height="28px" viewBox="0 0 28 28" version="1.1" xmlns="http://www.w3.org/2000/svg" xmlns:xlink="http://www.w3.org/1999/xlink">
    <!-- Generator: sketchtool 52.2 (67145) - http://www.bohemiancoding.com/sketch -->
    <title>46C490F8-4589-47D7-9E88-998AC56D79F1</title>
    <desc>Created with sketchtool.</desc>
    <defs>
        <path d="M14,27.3333334 C12.9500784,27.3307318 11.9473435,26.8968561 11.2266667,26.1333334 L10.3733333,25.2266667 C9.93532769,24.7496388 9.31419463,24.4827457 8.66666664,24.4933334 L7.33333331,24.5333334 C6.3012291,24.5553788 5.30486645,24.1550822 4.57489211,23.4251079 C3.84491776,22.6951335 3.44462122,21.6987709 3.46666662,20.6666667 L3.46666662,19.4266667 C3.487111,18.7656431 3.21952928,18.128312 2.73333329,17.68 L1.82666662,16.8266667 C1.0596873,16.1082289 0.624477655,15.1042425 0.624477655,14.0533333 C0.624477655,13.0024242 1.0596873,11.9984377 1.82666662,11.28 L2.73333329,10.4266667 C3.23792728,9.98266406 3.52090676,9.33864181 3.50666662,8.66666664 L3.46666662,7.33333331 C3.44462122,6.3012291 3.84491776,5.30486645 4.57489211,4.57489211 C5.30486645,3.84491776 6.3012291,3.44462122 7.33333331,3.46666662 L8.57333331,3.46666662 C9.23502022,3.4907163 9.87379716,3.22252751 10.32,2.73333329 L11.1733333,1.82666662 C12.7220113,0.336624047 15.1713221,0.336624047 16.72,1.82666662 L17.5733333,2.73333329 C18.0184323,3.23642647 18.6617221,3.51908411 19.3333334,3.50666662 L20.5733334,3.50666662 C21.614286,3.45889695 22.6289186,3.8422089 23.3782651,4.56632493 C24.1276117,5.29044096 24.5454364,6.29135548 24.5333334,7.33333331 L24.5333334,8.57333331 C24.512889,9.23435695 24.7804707,9.87168795 25.2666667,10.32 L26.1733334,11.1733333 C26.9403127,11.8917711 27.3755223,12.8957575 27.3755223,13.9466667 C27.3755223,14.9975758 26.9403127,16.0015623 26.1733334,16.72 L25.2666667,17.5733333 C24.7620727,18.0173359 24.4790932,18.6613582 24.4933334,19.3333334 L24.4933334,20.5733334 C24.5411031,21.614286 24.1577911,22.6289186 23.4336751,23.3782651 C22.709559,24.1276117 21.7086445,24.5454364 20.6666667,24.5333334 L19.4266667,24.5333334 C18.7632837,24.4998034 18.120623,24.7696228 17.68,25.2666667 L16.8266667,26.1733334 C16.0863803,26.9357063 15.0624153,27.3559184 14,27.3333334 Z M8.66666664,21.8266667 C10.0370467,21.8279681 11.3454823,22.3976928 12.28,23.4 L13.1333333,24.3066667 C13.3495299,24.5315742 13.6480315,24.6586846 13.96,24.6586846 C14.2719685,24.6586846 14.5704701,24.5315742 14.7866667,24.3066667 L15.64,23.4 C16.6192318,22.3582954 17.9975557,21.7856115 19.4266667,21.8266667 L20.6666667,21.8266667 C20.9788057,21.8403461 21.2827457,21.7245594 21.5066667,21.5066667 C21.7378828,21.2886502 21.8682521,20.9844553 21.8666667,20.6666667 L21.8666667,19.4266667 C21.8238821,17.9972371 22.3968493,16.6182312 23.44,15.64 L24.3466667,14.7866667 C24.5751121,14.5724204 24.7047152,14.2731912 24.7047152,13.96 C24.7047152,13.6468088 24.5751121,13.3475796 24.3466667,13.1333333 L23.44,12.28 C22.3926391,11.3182518 21.8056687,9.95512223 21.8266667,8.53333331 L21.8266667,7.29333331 C21.8387672,6.98145132 21.7232098,6.67811297 21.5066667,6.4533333 C21.2836316,6.23405581 20.9790656,6.11803067 20.6666667,6.1333333 L19.4266667,6.1333333 C18.0274971,6.19067732 16.668402,5.65864722 15.68,4.66666663 L14.8266667,3.75999996 C14.6104701,3.53509245 14.3119685,3.40798206 14,3.40798206 C13.6880315,3.40798206 13.3895299,3.53509245 13.1733333,3.75999996 L12.32,4.66666663 C11.3319244,5.68819765 9.95311855,6.23680701 8.53333331,6.1733333 L7.33333331,6.1333333 C7.02067145,6.11636109 6.71545381,6.23263447 6.4933333,6.4533333 C6.25164476,6.68075149 6.12033705,7.00172588 6.1333333,7.33333331 L6.1333333,8.57333331 C6.19233648,9.97278055 5.66005392,11.3325206 4.66666663,12.32 L3.75999996,13.1733333 C3.53155461,13.3875796 3.40195152,13.6868088 3.40195152,14 C3.40195152,14.3131912 3.53155461,14.6124204 3.75999996,14.8266667 L4.66666663,15.68 C5.68528925,16.670022 6.23335648,18.0474653 6.1733333,19.4666667 L6.1733333,20.7066667 C6.16123278,21.0185487 6.27679024,21.321887 6.4933333,21.5466667 C6.71450918,21.768825 7.02040561,21.8853569 7.33333331,21.8666667 L8.57333331,21.8666667 L8.66666664,21.8266667 Z M14,19.3333334 C11.0544813,19.3333334 8.66666664,16.9455187 8.66666664,14 C8.66666664,11.0544813 11.0544813,8.66666664 14,8.66666664 C16.9455187,8.66666664 19.3333334,11.0544813 19.3333334,14 C19.3333334,15.414488 18.7714302,16.7710422 17.7712362,17.7712362 C16.7710422,18.7714302 15.414488,19.3333334 14,19.3333334 Z M14,11.3333333 C12.5272407,11.3333333 11.3333333,12.5272407 11.3333333,14 C11.3333333,15.4727593 12.5272407,16.6666667 14,16.6666667 C15.4727593,16.6666667 16.6666667,15.4727593 16.6666667,14 C16.6666667,12.5272407 15.4727593,11.3333333 14,11.3333333 Z" id="path-1"></path>
    </defs>
    <g id="Symbols" stroke="none" stroke-width="1" fill="none" fill-rule="evenodd">
        <g id="pattern_library/invision" transform="translate(-103.000000, -2561.000000)">
            <g id="Icons" transform="translate(98.000000, 2321.000000)">
                <g id="icon-settings32x32" transform="translate(5.000000, 240.000000)">
                    <mask id="mask-2" fill="white">
                        <use xlink:href="#path-1"></use>
                    </mask>
                    <g id="Combined-Shape" fill-rule="nonzero"></g>
                    <g id="🎨-color" mask="url(#mask-2)" fill="#D2D2D2">
                        <g transform="translate(-2.000000, -2.000000)" id="Rectangle-Copy">
                            <rect x="0" y="0" width="32" height="32"></rect>
                        </g>
                    </g>
                </g>
            </g>
        </g>
    </g>
</svg>