<?xml version="1.0" encoding="UTF-8"?>
<svg width="20px" height="24px" viewBox="0 0 20 24" version="1.1" xmlns="http://www.w3.org/2000/svg" xmlns:xlink="http://www.w3.org/1999/xlink">
    <!-- Generator: sketchtool 52.2 (67145) - http://www.bohemiancoding.com/sketch -->
    <title>532F653B-CC25-4EC7-9ADB-6031994E28FB</title>
    <desc>Created with sketchtool.</desc>
    <defs>
        <path d="M1.99999997,25 C1.78114543,24.9989065 1.56592496,24.9439566 1.3733333,24.84 C0.939537065,24.6090156 0.667977996,24.158125 0.666666628,23.6666667 L0.666666628,2.33333329 C0.667977996,1.84187497 0.939537065,1.39098444 1.3733333,1.15999995 C1.78586807,0.92182289 2.29413187,0.92182289 2.70666664,1.15999995 L18.7066667,11.8266667 C19.0752393,12.074349 19.2963155,12.4892699 19.2963155,12.9333333 C19.2963155,13.3773967 19.0752393,13.7923177 18.7066667,14.04 L2.70666664,24.7066667 C2.50482676,24.8713825 2.25915423,24.9733598 1.99999997,25 Z M3.33333331,4.82666663 L3.33333331,21.1733334 L15.6,13 L3.33333331,4.82666663 Z" id="path-1"></path>
    </defs>
    <g id="Symbols" stroke="none" stroke-width="1" fill="none" fill-rule="evenodd">
        <g id="pattern_library/invision" transform="translate(-990.000000, -2507.000000)">
            <g id="Icons" transform="translate(98.000000, 2321.000000)">
                <g id="icon-play32x32" transform="translate(892.000000, 185.000000)">
                    <mask id="mask-2" fill="white">
                        <use xlink:href="#path-1"></use>
                    </mask>
                    <g id="icon-play" fill-rule="nonzero"></g>
                    <g id="🎨-color" mask="url(#mask-2)" fill="#D2D2D2">
                        <g transform="translate(-6.000000, -3.000000)" id="Rectangle-Copy">
                            <rect x="0" y="0" width="32" height="32"></rect>
                        </g>
                    </g>
                </g>
            </g>
        </g>
    </g>
</svg>