<?xml version="1.0" encoding="UTF-8"?>
<svg width="24px" height="28px" viewBox="0 0 24 28" version="1.1" xmlns="http://www.w3.org/2000/svg" xmlns:xlink="http://www.w3.org/1999/xlink">
    <!-- Generator: sketchtool 52.2 (67145) - http://www.bohemiancoding.com/sketch -->
    <title>4EA12DBC-1A43-47D9-B7FD-CAC5168F2ED1</title>
    <desc>Created with sketchtool.</desc>
    <defs>
        <path d="M12.0000001,4.19767619 L9.64769802,8.26724817 C9.40943328,8.67945523 8.9694476,8.93333337 8.49333339,8.93333337 L3.80407805,8.93333337 L6.15436467,12.9994186 C6.3929896,13.4122488 6.3929896,13.9210847 6.15436467,14.3339149 L3.80407805,18.4000001 L8.49333339,18.4000001 C8.9694476,18.4000001 9.40943328,18.6538782 9.64769802,19.0660853 L12.0000001,23.1356573 L14.3523021,19.0660853 C14.5905669,18.6538782 15.0305525,18.4000001 15.5066667,18.4000001 L20.1959221,18.4000001 L17.8456355,14.3339149 C17.6070105,13.9210847 17.6070105,13.4122488 17.8456355,12.9994186 L20.1959221,8.93333337 L15.5066667,8.93333337 C15.0305525,8.93333337 14.5905669,8.67945523 14.3523021,8.26724817 L12.0000001,4.19767619 Z M7.72398064,6.26666671 L10.8456354,0.86608522 C11.3589846,-0.0220283851 12.6410155,-0.0220283851 13.1543647,0.86608522 L16.2760195,6.26666671 L22.5066668,6.26666671 C23.5333657,6.26666671 24.1748286,7.37835945 23.6610314,8.26724817 L20.5400488,13.6666667 L23.6610314,19.0660853 C24.1748286,19.954974 23.5333657,21.0666668 22.5066668,21.0666668 L16.2760195,21.0666668 L13.1543647,26.4672482 C12.6410155,27.3553619 11.3589846,27.3553619 10.8456354,26.4672482 L7.72398064,21.0666668 L1.49333336,21.0666668 C0.466634406,21.0666668 -0.174828495,19.954974 0.338968721,19.0660853 L3.45995132,13.6666667 L0.338968721,8.26724817 C-0.174828495,7.37835945 0.466634406,6.26666671 1.49333336,6.26666671 L7.72398064,6.26666671 Z" id="path-1"></path>
    </defs>
    <g id="Symbols" stroke="none" stroke-width="1" fill="none" fill-rule="evenodd">
        <g id="pattern_library/invision" transform="translate(-252.000000, -2561.000000)">
            <g id="Icons" transform="translate(98.000000, 2321.000000)">
                <g id="icon-star32x32" transform="translate(154.000000, 240.000000)">
                    <g id="Group" transform="translate(0.000000, 0.333333)">
                        <g id="Vrstva_1">
                            <g id="color/@barbie">
                                <mask id="mask-2" fill="white">
                                    <use xlink:href="#path-1"></use>
                                </mask>
                                <use id="Mask" fill="#D2D2D2" fill-rule="nonzero" xlink:href="#path-1"></use>
                                <g mask="url(#mask-2)" fill="#D2D2D2" id="Rectangle-Copy">
                                    <g transform="translate(-6.000000, -7.333333)">
                                        <rect x="0" y="0" width="37" height="44"></rect>
                                    </g>
                                </g>
                            </g>
                        </g>
                    </g>
                </g>
            </g>
        </g>
    </g>
</svg>