{
  "cs": {
    "text": "text",
    "slider": "škála",
    "select": "abc",
    "inputs": {
      "empty": "nenalezeno"
    },
    "login": {
      "login": "přihlásit se",
      "register": "registrovat se",
      "recover": "obnovit heslo",
      "email": "email",
      "password": "heslo",
      "welcome_back": "vítejte zpět",
      "login-ing": "přihlášení",
      "you_dont_have_an_account": "ještě nemáte účet?",
      "you_forgot": "zapoměli jste heslo?",
      "bad_credentials": "Zadali jste špatný email nebo heslo.",
      "need_help": "potřebujete pomoct?",
      "get_in_touch": "napište nám"
    },
    "register": {
      "join_us": "přidejte se k nám",
      "registration": "registrace",
      "school_name": "jméno školy",
      "name": "jméno",
      "email": "email",
      "password": "heslo",
      "register": "registrovat",
      "you_have_an_account": "již máte účet?",
      "login": "přihlásit se",
      "email_taken": "tento email byl již registrován.",
      "without_school": "Moje škola není registrovaná",
      "name_required": "vyplňte prosím své jméno",
      "school_required": "povinné pole",
      "agree_to": "souhlasím se",
      "terms_and_conditions": "smluvními podmínkami",
      "get_news": "přeji si dostávat informace o nových funkcích na svůj e-mail",
      "this_is_required": "povinné pole",
      "success": "Registrace se povedla",
      "password_required": "Vyplňte prosím své heslo.",
      "email_required": "Vyplňte prosím svůj email.",
      "must_agree": "Musíte odsouhlasit naše smluvní podmínky"
    },
    "templates": {
      "create_new_survey": "vytvořit nové hlasování",
      "new_survey": "nové hlasování",
      "no_templates": "zatím nemáte žádné šablony",
      "your_templates": "Vaše šablony",
      "our_templates": "Předpřipravené šablony"
    },
    "editor": {
      "survey_name": "název hlasování",
      "add_new_question": "přidat novou otázku",
      "save": "uložit",
      "question": "otázka",
      "choose_answer_type": "vyberte typ odpovědi",
      "add_options": "připište možnosti",
      "start": "spustit",
      "cancel": "zrušit",
      "continue": "pokračovat",
      "save_as_template": "uložit jako šablonu",
      "few_more_options_needed": "ještě je potřeba %{smart_count} možnost.||||ještě jsou potřeba %{smart_count} možnosti.||||ještě je potřeba %{smart_count} možností."
    },
    "results": {
      "survey_started": "hlasování spuštěno",
      "survey_code": "kód hlasování",
      "go_to_student_app_located1": "pro zúčastnění v hlasování",
      "go_to_student_app_located2": "zadejte kód výše na ",
      "show_survey": "zobrazit hlasování",
      "history": "historie",
      "open": "otevřít",
      "answer_count": "počet odpovědí",
      "survey_name": "jméno hlasování",
      "no_results": "zatím nemáte žádná hlasování"
    },
    "sidebar": {
      "pay": "předplatit",
      "survey_count": "hlasování celkem",
      "answer_count": "získaných odpovědí",
      "manage_subscription": "spravovat předplatné",
      "support": "podpora",
      "version": "verze %{version}",
      "userInfo": "Vaše údaje",
      "templates": "Šablony a vytváření nových hlasování",
      "history": "Výsledky hlasování",
      "semafor": "Semafor",
      "settings": "Nastavení",
      "logout": "Odhlášení",
      "feedback": "Zpětná vazba k aplikaci"
    },
    "traffic_lights": {
      "traffic_lights": "semafor",
      "ok": "chápu to",
      "mid": "začínám se ztrácet",
      "bad": "nechápu to",
      "code": "kód"
    },
    "feedback": {
      "subject": "Zpětná vazba",
      "body": "Ahoj%20t%C3%BDme%20pochopimto%2C%0A%0Acht%C4%9Bl(a)%20jsem%20V%C3%A1m%20%C5%99%C3%ADci%2C%20%C5%BEe"
    },
    "notifications": {
      "no_internet_connection": "Problém s internetem"
    },
    "intro": {
      "intro": "Vítejte v aplikaci pochopim.to. Tento krátký průvodce Vás provede ovládáním naší aplikace.",
      "templates-button": "Toto je hlavní obrazovka, najdete zde Vaše a naše šablony",
      "history-button": "Zde se zobrazí výsledky Vašich předešlých průzkumů",
      "semafor-button": "Funkce semafor, abyste měli okamžitý přehled, zda jsou žáci v obraze, během celé hodiny",
      "last": "To je již od nás vše, pokud butete mít jakékoliv dorazy/připomínky, tak nám napište na info@pochopimto.cz",
      "next": "Další",
      "finish": "Ukončit",
      "skip": "Přeskočit"
    },
    "general_error": "Upss. Něco se pokazilo."
  },
  "en": {
    "text": "text",
    "slider": "scale",
    "select": "abc",
    "inputs": {
      "empty": "not found"
    },
    "login": {
      "login": "log in",
      "register": "register",
      "recover": "recover password",
      "email": "email",
      "password": "password",
      "welcome_back": "welcome back",
      "login-ing": "log in",
      "you_dont_have_an_account": "not registered yet?",
      "you_forgot": "forgot password?",
      "bad_credentials": "username or password is incorrect",
      "need_help": "need help?",
      "get_in_touch": "contact us"
    },
    "register": {
      "join_us": "join us",
      "registration": "registration",
      "school_name": "school name",
      "name": "name",
      "email": "email",
      "password": "password",
      "register": "register",
      "you_have_an_account": "already have an account?",
      "login": "log in",
      "email_taken": "this email has already been used for registration",
      "without_school": "register without school",
      "name_required": "please fill in your name",
      "school_required": "mandatory field",
      "agree_to": "I agree with",
      "terms_and_conditions": "terms and Conditions",
      "get_news": "I want to receive newsletter",
      "this_is_required": "mandatory field"
    },
    "templates": {
      "create_new_survey": "create a survey",
      "new_survey": "new survey",
      "no_templates": "no templates yet",
      "your_templates": "Your templates",
      "our_templates": "Predefined templates"
    },
    "editor": {
      "survey_name": "survey name",
      "add_new_question": "add a question",
      "save": "save",
      "question": "question",
      "choose_answer_type": "choose answer type",
      "add_options": "add option",
      "start": "start",
      "cancel": "cancel",
      "continue": "continue",
      "save_as_template": "save as a template",
      "few_more_options_needed": "you need to add %{smart_count} more option.||||you need to add %{smart_count} more options.||||you need to add %{smart_count} more options."
    },
    "results": {
      "survey_started": "survey successfully created",
      "survey_code": "survey code",
      "go_to_student_app_located1": "to vote",
      "go_to_student_app_located2": "enter this code at ",
      "show_survey": "show results",
      "history": "history",
      "open": "results",
      "answer_count": "number of answers",
      "survey_name": "survey name",
      "no_results": "no surveys yet"
    },
    "sidebar": {
      "pay": "subscribe",
      "survey_count": "surveys total",
      "answer_count": "received answers",
      "manage_subscription": "manage subscription",
      "support": "support",
      "version": "version %{version}",
      "userInfo": "Your info",
      "templates": "Templtes and new surveys",
      "history": "Results",
      "semafor": "Traffict lights",
      "settings": "Settings",
      "logout": "Log out",
      "feedback": "Feedback"
    },
    "traffic_lights": {
      "traffic_lights": "traffic light",
      "ok": "I understand all of it",
      "mid": "I am getting lost",
      "bad": "I am lost",
      "code": "code"
    },
    "feedback": {
      "subject": "Feedback",
      "body": "Hi%2C%0A"
    },
    "notifications": {
      "no_internet_connection": "No Internet connection"
    },
    "intro": {
      "intro": "Welcome. This quick manual will guide you step by step through our app.",
      "templates-button": "This is the main screen. You will find your and our templates here.",
      "history-button": "The results of your surveys will appear here.",
      "semafor-button": "The traffic light feature is designed to provide you with instant feedback from your students during the whole class.",
      "last": "That's all from us. Fell free to contact us at info@pochopimto.cz in case you have any questions/comments.",
      "next": "Next",
      "finish": "Finish",
      "skip": "Skip"
    },
    "general_error": "Something went wrong. Please try again."
  }
}
