<?xml version="1.0" encoding="UTF-8"?>
<svg width="24px" height="24px" viewBox="0 0 24 24" version="1.1" xmlns="http://www.w3.org/2000/svg" xmlns:xlink="http://www.w3.org/1999/xlink">
    <!-- Generator: Sketch 61 (89581) - https://sketch.com -->
    <title>icon-step_forward24x24</title>
    <desc>Created with Sketch.</desc>
    <defs>
        <path d="M15.38,6.75420165 C15.6466376,6.75420165 15.9022334,6.86068733 16.09,7.04999998 L20.33,11.29 C20.5193127,11.4777666 20.6257984,11.7333625 20.6257984,12 C20.6257984,12.2666375 20.5193127,12.5222334 20.33,12.71 L16.09,17 C15.8933942,17.1690153 15.6388302,17.2550652 15.38,17.24 C15.114197,17.2415368 14.8587188,17.1371865 14.67,16.95 C14.2822764,16.5599626 14.2822764,15.9300375 14.67,15.54 L17.21,12.9992017 L4.37999996,13 C3.82771522,13 3.37999996,12.5522848 3.37999996,12 C3.37999996,11.4477152 3.82771522,11 4.37999996,11 L17.21,10.9992017 L14.67,8.45999999 C14.2822764,8.06996253 14.2822764,7.44003744 14.67,7.04999998 C14.8577666,6.86068733 15.1133625,6.75420165 15.38,6.75420165 Z" id="path-1"></path>
        <rect id="path-3" x="0" y="0" width="24" height="24"></rect>
    </defs>
    <g id="icon-step_forward24x24" stroke="none" stroke-width="1" fill="none" fill-rule="evenodd">
        <mask id="mask-2" fill="white">
            <use xlink:href="#path-1"></use>
        </mask>
        <g id="Combined-Shape"></g>
        <g id="color/@grey3" mask="url(#mask-2)" fill="#D2D2D2">
            <rect id="Rectangle-Copy" x="0" y="0" width="24" height="24"></rect>
        </g>
        <g id="state/disabled" mask="url(#mask-2)">
            <g id="Rectangle">
                <use fill="#000000" style="mix-blend-mode: color;" xlink:href="#path-3"></use>
                <use fill-opacity="0.7" fill="#FFFFFF" xlink:href="#path-3"></use>
            </g>
        </g>
    </g>
</svg>