<?xml version="1.0" encoding="UTF-8"?>
<svg width="24px" height="24px" viewBox="0 0 24 24" version="1.1" xmlns="http://www.w3.org/2000/svg" xmlns:xlink="http://www.w3.org/1999/xlink">
    <!-- Generator: Sketch 61 (89581) - https://sketch.com -->
    <title>icon-step_back24x24</title>
    <desc>Created with Sketch.</desc>
    <defs>
        <path d="M19.62,11 C20.1722848,11 20.62,11.4477152 20.62,12 C20.62,12.5522848 20.1722848,13 19.62,13 L6.78920164,12.9992017 L9.32999999,15.54 C9.71772359,15.9300375 9.71772359,16.5599626 9.32999999,16.95 C9.14128116,17.1371865 8.88580297,17.2415368 8.61999999,17.24 C8.36116979,17.2550652 8.10660579,17.1690153 7.90999998,17 L3.66999997,12.71 C3.48068731,12.5222334 3.37420164,12.2666375 3.37420164,12 C3.37420164,11.7333625 3.48068731,11.4777666 3.66999997,11.29 L7.90999998,7.04999998 C8.09776658,6.86068733 8.35336245,6.75420165 8.61999999,6.75420165 C8.88663752,6.75420165 9.14223339,6.86068733 9.32999999,7.04999998 C9.71772359,7.44003744 9.71772359,8.06996253 9.32999999,8.45999999 L6.78920164,10.9992017 L19.62,11 Z" id="path-1"></path>
        <rect id="path-3" x="0" y="0" width="24" height="24"></rect>
    </defs>
    <g id="icon-step_back24x24" stroke="none" stroke-width="1" fill="none" fill-rule="evenodd">
        <mask id="mask-2" fill="white">
            <use xlink:href="#path-1"></use>
        </mask>
        <g id="Combined-Shape"></g>
        <g id="color/@grey3" mask="url(#mask-2)" fill="#D2D2D2">
            <rect id="Rectangle-Copy" x="0" y="0" width="24" height="24"></rect>
        </g>
        <g id="state/disabled" mask="url(#mask-2)">
            <g id="Rectangle">
                <use fill="#000000" style="mix-blend-mode: color;" xlink:href="#path-3"></use>
                <use fill-opacity="0.7" fill="#FFFFFF" xlink:href="#path-3"></use>
            </g>
        </g>
    </g>
</svg>