<?xml version="1.0" encoding="UTF-8"?>
<svg width="24px" height="24px" viewBox="0 0 24 24" version="1.1" xmlns="http://www.w3.org/2000/svg" xmlns:xlink="http://www.w3.org/1999/xlink">
    <!-- Generator: Sketch 61 (89581) - https://sketch.com -->
    <title>icon-plus24x24</title>
    <desc>Created with Sketch.</desc>
    <defs>
        <path d="M12,2.99999996 C12.5522848,2.99999996 13,3.44771521 13,3.99999996 L13,11 L20,11 C20.5522848,11 21,11.4477152 21,12 C21,12.5522848 20.5522848,13 20,13 L13,13 L13,20 C13,20.5128359 12.6139598,20.9355071 12.1166211,20.9932722 L12,21 L12,21 C11.4477152,21 11,20.5522848 11,20 L11,13 L3.99999996,13 C3.44771521,13 2.99999996,12.5522848 2.99999996,12 C2.99999996,11.4477152 3.44771521,11 3.99999996,11 L11,11 L11,3.99999996 C11,3.44771521 11.4477152,2.99999996 12,2.99999996 Z" id="path-1"></path>
        <rect id="path-3" x="0" y="0" width="24" height="24"></rect>
    </defs>
    <g id="icon-plus24x24" stroke="none" stroke-width="1" fill="none" fill-rule="evenodd">
        <mask id="mask-2" fill="white">
            <use xlink:href="#path-1"></use>
        </mask>
        <g id="Combined-Shape"></g>
        <g id="color/@grey3" mask="url(#mask-2)" fill="#D2D2D2">
            <rect id="Rectangle-Copy" x="0" y="0" width="24" height="24"></rect>
        </g>
        <g id="state/disabled" mask="url(#mask-2)">
            <g id="Rectangle">
                <use fill="#000000" style="mix-blend-mode: color;" xlink:href="#path-3"></use>
                <use fill-opacity="0.7" fill="#FFFFFF" xlink:href="#path-3"></use>
            </g>
        </g>
    </g>
</svg>