<?xml version="1.0" encoding="UTF-8"?>
<svg width="24px" height="24px" viewBox="0 0 24 24" version="1.1" xmlns="http://www.w3.org/2000/svg" xmlns:xlink="http://www.w3.org/1999/xlink">
    <!-- Generator: Sketch 61 (89581) - https://sketch.com -->
    <title>icon-skala24x24</title>
    <desc>Created with Sketch.</desc>
    <defs>
        <path d="M18,9.99999999 C19.1045695,9.99999999 20,10.8954305 20,12 C20,13.1045695 19.1045695,14 18,14 C17.2601625,14 16.6141507,13.5982846 16.2681882,13.0010775 L7.73181183,13.0010775 C7.38584931,13.5982846 6.73983747,14 5.99999997,14 C4.89543047,14 3.99999997,13.1045695 3.99999997,12 C3.99999997,10.8954305 4.89543047,9.99999999 5.99999997,9.99999999 C6.74025241,9.99999999 7.38657392,10.4021661 7.73239365,10.9999275 L16.2676063,10.9999275 C16.6134261,10.4021661 17.2597476,9.99999999 18,9.99999999 Z" id="path-1"></path>
        <rect id="path-3" x="0" y="0" width="24" height="24"></rect>
    </defs>
    <g id="icon-skala24x24" stroke="none" stroke-width="1" fill="none" fill-rule="evenodd">
        <mask id="mask-2" fill="white">
            <use xlink:href="#path-1"></use>
        </mask>
        <g id="Combined-Shape"></g>
        <g id="color/@grey3" mask="url(#mask-2)" fill="#D2D2D2">
            <rect id="Rectangle-Copy" x="0" y="0" width="24" height="24"></rect>
        </g>
        <g id="state/disabled" mask="url(#mask-2)">
            <g id="Rectangle">
                <use fill="#000000" style="mix-blend-mode: color;" xlink:href="#path-3"></use>
                <use fill-opacity="0.7" fill="#FFFFFF" xlink:href="#path-3"></use>
            </g>
        </g>
    </g>
</svg>