<?xml version="1.0" encoding="UTF-8"?>
<svg width="24px" height="24px" viewBox="0 0 24 24" version="1.1" xmlns="http://www.w3.org/2000/svg" xmlns:xlink="http://www.w3.org/1999/xlink">
    <!-- Generator: Sketch 61 (89581) - https://sketch.com -->
    <title>icon-warning24x24</title>
    <desc>Created with Sketch.</desc>
    <defs>
        <path d="M12,0.999999954 C18.0751323,0.999999954 23,5.92486773 23,12 C23,14.9173814 21.8410748,17.7152745 19.7781746,19.7781746 C17.7152745,21.8410748 14.9173814,23 12,23 C5.92486773,23 0.999999954,18.0751323 0.999999954,12 C0.999999954,5.92486773 5.92486773,0.999999954 12,0.999999954 Z M12,2.99999996 C7.02943723,2.99999996 2.99999996,7.02943723 2.99999996,12 C2.99999996,16.9705628 7.02943723,21 12,21 C16.9705628,21 21,16.9705628 21,12 C21,7.02943723 16.9705628,2.99999996 12,2.99999996 Z M12,15 C12.8284271,15 13.5,15.6715729 13.5,16.5 C13.5,17.3284271 12.8284271,18 12,18 C11.1715729,18 10.5,17.3284271 10.5,16.5 C10.5,15.6715729 11.1715729,15 12,15 Z M12,4.99999997 C12.5522848,4.99999997 13,5.44771522 13,5.99999997 L13,13 C13,13.5522848 12.5522848,14 12,14 C11.4477152,14 11,13.5522848 11,13 L11,5.99999997 C11,5.44771522 11.4477152,4.99999997 12,4.99999997 Z" id="path-1"></path>
        <rect id="path-3" x="0" y="0" width="24" height="24"></rect>
    </defs>
    <g id="icon-warning24x24" stroke="none" stroke-width="1" fill="none" fill-rule="evenodd">
        <mask id="mask-2" fill="white">
            <use xlink:href="#path-1"></use>
        </mask>
        <g id="Combined-Shape" fill-rule="nonzero"></g>
        <g id="color/@grey3" mask="url(#mask-2)" fill="#D2D2D2">
            <rect id="Rectangle-Copy" x="0" y="0" width="24" height="24"></rect>
        </g>
        <g id="state/disabled" mask="url(#mask-2)">
            <g id="Rectangle">
                <use fill="#000000" style="mix-blend-mode: color;" xlink:href="#path-3"></use>
                <use fill-opacity="0.7" fill="#FFFFFF" xlink:href="#path-3"></use>
            </g>
        </g>
    </g>
</svg>